%YAML 1.1
%TAG !u! tag:unity3d.com,2011:
--- !u!1001 &5387892244386962446
PrefabInstance:
  m_ObjectHideFlags: 0
  serializedVersion: 2
  m_Modification:
    m_TransformParent: {fileID: 0}
    m_Modifications:
    - target: {fileID: 122156999438275552, guid: b0c4eba44fad937439e9cec238b62f04,
        type: 3}
      propertyPath: m_Name
      value: rws02c
      objectReference: {fileID: 0}
    - target: {fileID: 864867296771556365, guid: b0c4eba44fad937439e9cec238b62f04,
        type: 3}
      propertyPath: m_Materials.Array.data[0]
      value: 
      objectReference: {fileID: 2100000, guid: 455f4494f1cdbfa47a5bf90809c67655, type: 2}
    - target: {fileID: 2863131893341573765, guid: b0c4eba44fad937439e9cec238b62f04,
        type: 3}
      propertyPath: phaseRef
      value: 
      objectReference: {fileID: 6512355409363246508}
    - target: {fileID: 7884098703643525509, guid: b0c4eba44fad937439e9cec238b62f04,
        type: 3}
      propertyPath: texRef
      value: 
      objectReference: {fileID: 2800000, guid: b35fb5cebc844f84baa5530bb5619ec4, type: 3}
    - target: {fileID: 7884098703643525509, guid: b0c4eba44fad937439e9cec238b62f04,
        type: 3}
      propertyPath: cols.Array.data[0].r
      value: 0.47058827
      objectReference: {fileID: 0}
    - target: {fileID: 7884098703643525509, guid: b0c4eba44fad937439e9cec238b62f04,
        type: 3}
      propertyPath: cols.Array.data[0].g
      value: 0.30588236
      objectReference: {fileID: 0}
    - target: {fileID: 7884098703643525509, guid: b0c4eba44fad937439e9cec238b62f04,
        type: 3}
      propertyPath: cols.Array.data[0].b
      value: 0.27058825
      objectReference: {fileID: 0}
    - target: {fileID: 7884098703643525509, guid: b0c4eba44fad937439e9cec238b62f04,
        type: 3}
      propertyPath: cols.Array.data[1].r
      value: 0.9921569
      objectReference: {fileID: 0}
    - target: {fileID: 7884098703643525509, guid: b0c4eba44fad937439e9cec238b62f04,
        type: 3}
      propertyPath: cols.Array.data[1].b
      value: 0.9450981
      objectReference: {fileID: 0}
    - target: {fileID: 7884098703643525509, guid: b0c4eba44fad937439e9cec238b62f04,
        type: 3}
      propertyPath: cols.Array.data[2].r
      value: 0.93725497
      objectReference: {fileID: 0}
    - target: {fileID: 7884098703643525509, guid: b0c4eba44fad937439e9cec238b62f04,
        type: 3}
      propertyPath: cols.Array.data[2].g
      value: 0.9058824
      objectReference: {fileID: 0}
    - target: {fileID: 7884098703643525509, guid: b0c4eba44fad937439e9cec238b62f04,
        type: 3}
      propertyPath: cols.Array.data[2].b
      value: 0.56078434
      objectReference: {fileID: 0}
    - target: {fileID: 7884098703643525509, guid: b0c4eba44fad937439e9cec238b62f04,
        type: 3}
      propertyPath: cols.Array.data[1].g
      value: 0.9921569
      objectReference: {fileID: 0}
    - target: {fileID: 8859394386522468642, guid: b0c4eba44fad937439e9cec238b62f04,
        type: 3}
      propertyPath: m_LocalPosition.x
      value: 0
      objectReference: {fileID: 0}
    - target: {fileID: 8859394386522468642, guid: b0c4eba44fad937439e9cec238b62f04,
        type: 3}
      propertyPath: m_LocalPosition.y
      value: 0
      objectReference: {fileID: 0}
    - target: {fileID: 8859394386522468642, guid: b0c4eba44fad937439e9cec238b62f04,
        type: 3}
      propertyPath: m_LocalPosition.z
      value: 0
      objectReference: {fileID: 0}
    - target: {fileID: 8859394386522468642, guid: b0c4eba44fad937439e9cec238b62f04,
        type: 3}
      propertyPath: m_LocalRotation.x
      value: 0
      objectReference: {fileID: 0}
    - target: {fileID: 8859394386522468642, guid: b0c4eba44fad937439e9cec238b62f04,
        type: 3}
      propertyPath: m_LocalRotation.y
      value: 0
      objectReference: {fileID: 0}
    - target: {fileID: 8859394386522468642, guid: b0c4eba44fad937439e9cec238b62f04,
        type: 3}
      propertyPath: m_LocalRotation.z
      value: 0
      objectReference: {fileID: 0}
    - target: {fileID: 8859394386522468642, guid: b0c4eba44fad937439e9cec238b62f04,
        type: 3}
      propertyPath: m_LocalRotation.w
      value: 1
      objectReference: {fileID: 0}
    - target: {fileID: 8859394386522468642, guid: b0c4eba44fad937439e9cec238b62f04,
        type: 3}
      propertyPath: m_RootOrder
      value: 0
      objectReference: {fileID: 0}
    - target: {fileID: 8859394386522468642, guid: b0c4eba44fad937439e9cec238b62f04,
        type: 3}
      propertyPath: m_LocalEulerAnglesHint.x
      value: 0
      objectReference: {fileID: 0}
    - target: {fileID: 8859394386522468642, guid: b0c4eba44fad937439e9cec238b62f04,
        type: 3}
      propertyPath: m_LocalEulerAnglesHint.y
      value: 0
      objectReference: {fileID: 0}
    - target: {fileID: 8859394386522468642, guid: b0c4eba44fad937439e9cec238b62f04,
        type: 3}
      propertyPath: m_LocalEulerAnglesHint.z
      value: 0
      objectReference: {fileID: 0}
    m_RemovedComponents: []
  m_SourcePrefab: {fileID: 100100000, guid: b0c4eba44fad937439e9cec238b62f04, type: 3}
--- !u!114 &6512355409363246508 stripped
MonoBehaviour:
  m_CorrespondingSourceObject: {fileID: 1199413042093539746, guid: b0c4eba44fad937439e9cec238b62f04,
    type: 3}
  m_PrefabInstance: {fileID: 5387892244386962446}
  m_PrefabAsset: {fileID: 0}
  m_GameObject: {fileID: 0}
  m_Enabled: 1
  m_EditorHideFlags: 0
  m_Script: {fileID: 11500000, guid: 306ad80c4a059c94093ae1294e9691b5, type: 3}
  m_Name: 
  m_EditorClassIdentifier: 
