%YAML 1.1
%TAG !u! tag:unity3d.com,2011:
--- !u!1001 &3098485632820314235
PrefabInstance:
  m_ObjectHideFlags: 0
  serializedVersion: 2
  m_Modification:
    m_TransformParent: {fileID: 0}
    m_Modifications:
    - target: {fileID: 2154985207306646954, guid: 726760eab6ae8cc47a8903f1d5fbc3db,
        type: 3}
      propertyPath: m_TargetTexture
      value: 
      objectReference: {fileID: 0}
    - target: {fileID: 3949020496661798220, guid: 726760eab6ae8cc47a8903f1d5fbc3db,
        type: 3}
      propertyPath: m_LocalPosition.x
      value: 0
      objectReference: {fileID: 0}
    - target: {fileID: 3949020496661798220, guid: 726760eab6ae8cc47a8903f1d5fbc3db,
        type: 3}
      propertyPath: m_LocalPosition.y
      value: 0
      objectReference: {fileID: 0}
    - target: {fileID: 3949020496661798220, guid: 726760eab6ae8cc47a8903f1d5fbc3db,
        type: 3}
      propertyPath: m_LocalPosition.z
      value: 1.74
      objectReference: {fileID: 0}
    - target: {fileID: 3949020496661798220, guid: 726760eab6ae8cc47a8903f1d5fbc3db,
        type: 3}
      propertyPath: m_LocalRotation.x
      value: 0
      objectReference: {fileID: 0}
    - target: {fileID: 3949020496661798220, guid: 726760eab6ae8cc47a8903f1d5fbc3db,
        type: 3}
      propertyPath: m_LocalRotation.y
      value: 0
      objectReference: {fileID: 0}
    - target: {fileID: 3949020496661798220, guid: 726760eab6ae8cc47a8903f1d5fbc3db,
        type: 3}
      propertyPath: m_LocalRotation.z
      value: 0
      objectReference: {fileID: 0}
    - target: {fileID: 3949020496661798220, guid: 726760eab6ae8cc47a8903f1d5fbc3db,
        type: 3}
      propertyPath: m_LocalRotation.w
      value: 1
      objectReference: {fileID: 0}
    - target: {fileID: 3949020496661798220, guid: 726760eab6ae8cc47a8903f1d5fbc3db,
        type: 3}
      propertyPath: m_RootOrder
      value: 0
      objectReference: {fileID: 0}
    - target: {fileID: 3949020496661798220, guid: 726760eab6ae8cc47a8903f1d5fbc3db,
        type: 3}
      propertyPath: m_LocalEulerAnglesHint.x
      value: 0
      objectReference: {fileID: 0}
    - target: {fileID: 3949020496661798220, guid: 726760eab6ae8cc47a8903f1d5fbc3db,
        type: 3}
      propertyPath: m_LocalEulerAnglesHint.y
      value: 0
      objectReference: {fileID: 0}
    - target: {fileID: 3949020496661798220, guid: 726760eab6ae8cc47a8903f1d5fbc3db,
        type: 3}
      propertyPath: m_LocalEulerAnglesHint.z
      value: 0
      objectReference: {fileID: 0}
    - target: {fileID: 5588584909667647374, guid: 726760eab6ae8cc47a8903f1d5fbc3db,
        type: 3}
      propertyPath: m_Name
      value: bsc03b
      objectReference: {fileID: 0}
    - target: {fileID: 6411083881328296905, guid: 726760eab6ae8cc47a8903f1d5fbc3db,
        type: 3}
      propertyPath: phaseRef
      value: 
      objectReference: {fileID: 5448373172433778195}
    m_RemovedComponents: []
  m_SourcePrefab: {fileID: 100100000, guid: 726760eab6ae8cc47a8903f1d5fbc3db, type: 3}
--- !u!114 &5448373172433778195 stripped
MonoBehaviour:
  m_CorrespondingSourceObject: {fileID: 6961591735592351336, guid: 726760eab6ae8cc47a8903f1d5fbc3db,
    type: 3}
  m_PrefabInstance: {fileID: 3098485632820314235}
  m_PrefabAsset: {fileID: 0}
  m_GameObject: {fileID: 0}
  m_Enabled: 1
  m_EditorHideFlags: 0
  m_Script: {fileID: 11500000, guid: 306ad80c4a059c94093ae1294e9691b5, type: 3}
  m_Name: 
  m_EditorClassIdentifier: 
