%YAML 1.1
%TAG !u! tag:unity3d.com,2011:
--- !u!1001 &3421617551863248086
PrefabInstance:
  m_ObjectHideFlags: 0
  serializedVersion: 2
  m_Modification:
    m_TransformParent: {fileID: 0}
    m_Modifications:
    - target: {fileID: 2465624436665567414, guid: 121d29ae1d74f2847a3141b52bd2255d,
        type: 3}
      propertyPath: phaseRef
      value: 
      objectReference: {fileID: 4001934185400750889}
    - target: {fileID: 3949020496661798220, guid: 121d29ae1d74f2847a3141b52bd2255d,
        type: 3}
      propertyPath: m_LocalPosition.x
      value: 0
      objectReference: {fileID: 0}
    - target: {fileID: 3949020496661798220, guid: 121d29ae1d74f2847a3141b52bd2255d,
        type: 3}
      propertyPath: m_LocalPosition.y
      value: 0
      objectReference: {fileID: 0}
    - target: {fileID: 3949020496661798220, guid: 121d29ae1d74f2847a3141b52bd2255d,
        type: 3}
      propertyPath: m_LocalPosition.z
      value: 0
      objectReference: {fileID: 0}
    - target: {fileID: 3949020496661798220, guid: 121d29ae1d74f2847a3141b52bd2255d,
        type: 3}
      propertyPath: m_LocalRotation.x
      value: 0
      objectReference: {fileID: 0}
    - target: {fileID: 3949020496661798220, guid: 121d29ae1d74f2847a3141b52bd2255d,
        type: 3}
      propertyPath: m_LocalRotation.y
      value: 0
      objectReference: {fileID: 0}
    - target: {fileID: 3949020496661798220, guid: 121d29ae1d74f2847a3141b52bd2255d,
        type: 3}
      propertyPath: m_LocalRotation.z
      value: 0
      objectReference: {fileID: 0}
    - target: {fileID: 3949020496661798220, guid: 121d29ae1d74f2847a3141b52bd2255d,
        type: 3}
      propertyPath: m_LocalRotation.w
      value: 1
      objectReference: {fileID: 0}
    - target: {fileID: 3949020496661798220, guid: 121d29ae1d74f2847a3141b52bd2255d,
        type: 3}
      propertyPath: m_RootOrder
      value: 0
      objectReference: {fileID: 0}
    - target: {fileID: 3949020496661798220, guid: 121d29ae1d74f2847a3141b52bd2255d,
        type: 3}
      propertyPath: m_LocalEulerAnglesHint.x
      value: 0
      objectReference: {fileID: 0}
    - target: {fileID: 3949020496661798220, guid: 121d29ae1d74f2847a3141b52bd2255d,
        type: 3}
      propertyPath: m_LocalEulerAnglesHint.y
      value: 0
      objectReference: {fileID: 0}
    - target: {fileID: 3949020496661798220, guid: 121d29ae1d74f2847a3141b52bd2255d,
        type: 3}
      propertyPath: m_LocalEulerAnglesHint.z
      value: 0
      objectReference: {fileID: 0}
    - target: {fileID: 4566763286073811669, guid: 121d29ae1d74f2847a3141b52bd2255d,
        type: 3}
      propertyPath: cols.Array.size
      value: 2
      objectReference: {fileID: 0}
    - target: {fileID: 4566763286073811669, guid: 121d29ae1d74f2847a3141b52bd2255d,
        type: 3}
      propertyPath: cols.Array.data[2].r
      value: 0.9568628
      objectReference: {fileID: 0}
    - target: {fileID: 4566763286073811669, guid: 121d29ae1d74f2847a3141b52bd2255d,
        type: 3}
      propertyPath: cols.Array.data[2].g
      value: 0.9607844
      objectReference: {fileID: 0}
    - target: {fileID: 4566763286073811669, guid: 121d29ae1d74f2847a3141b52bd2255d,
        type: 3}
      propertyPath: cols.Array.data[2].b
      value: 0.007843138
      objectReference: {fileID: 0}
    - target: {fileID: 4566763286073811669, guid: 121d29ae1d74f2847a3141b52bd2255d,
        type: 3}
      propertyPath: cols.Array.data[1].r
      value: 0.96249884
      objectReference: {fileID: 0}
    - target: {fileID: 4566763286073811669, guid: 121d29ae1d74f2847a3141b52bd2255d,
        type: 3}
      propertyPath: cols.Array.data[1].g
      value: 1
      objectReference: {fileID: 0}
    - target: {fileID: 4566763286073811669, guid: 121d29ae1d74f2847a3141b52bd2255d,
        type: 3}
      propertyPath: cols.Array.data[1].b
      value: 0.7783019
      objectReference: {fileID: 0}
    - target: {fileID: 4566763286073811669, guid: 121d29ae1d74f2847a3141b52bd2255d,
        type: 3}
      propertyPath: cols.Array.data[0].r
      value: 0.9528302
      objectReference: {fileID: 0}
    - target: {fileID: 4566763286073811669, guid: 121d29ae1d74f2847a3141b52bd2255d,
        type: 3}
      propertyPath: cols.Array.data[0].g
      value: 0.6961496
      objectReference: {fileID: 0}
    - target: {fileID: 4566763286073811669, guid: 121d29ae1d74f2847a3141b52bd2255d,
        type: 3}
      propertyPath: cols.Array.data[0].b
      value: 0.29214135
      objectReference: {fileID: 0}
    - target: {fileID: 4566763286073811669, guid: 121d29ae1d74f2847a3141b52bd2255d,
        type: 3}
      propertyPath: texRef
      value: 
      objectReference: {fileID: 2800000, guid: 5013e3b8bb295be438e4b4bf9e358f90, type: 3}
    - target: {fileID: 4730652086622766573, guid: 121d29ae1d74f2847a3141b52bd2255d,
        type: 3}
      propertyPath: m_Materials.Array.data[0]
      value: 
      objectReference: {fileID: 2100000, guid: 1e75bb6f4d0eaa24da11912599a05b4a, type: 2}
    - target: {fileID: 5311746040947786365, guid: 121d29ae1d74f2847a3141b52bd2255d,
        type: 3}
      propertyPath: m_TargetTexture
      value: 
      objectReference: {fileID: 0}
    - target: {fileID: 5588584909667647374, guid: 121d29ae1d74f2847a3141b52bd2255d,
        type: 3}
      propertyPath: m_Name
      value: old03a
      objectReference: {fileID: 0}
    m_RemovedComponents: []
  m_SourcePrefab: {fileID: 100100000, guid: 121d29ae1d74f2847a3141b52bd2255d, type: 3}
--- !u!114 &4001934185400750889 stripped
MonoBehaviour:
  m_CorrespondingSourceObject: {fileID: 1798553602042701823, guid: 121d29ae1d74f2847a3141b52bd2255d,
    type: 3}
  m_PrefabInstance: {fileID: 3421617551863248086}
  m_PrefabAsset: {fileID: 0}
  m_GameObject: {fileID: 0}
  m_Enabled: 1
  m_EditorHideFlags: 0
  m_Script: {fileID: 11500000, guid: 306ad80c4a059c94093ae1294e9691b5, type: 3}
  m_Name: 
  m_EditorClassIdentifier: 
